verification/sim/simple_basic_test.vcd
$date
	Sat Jul 26 08:30:57 2025
$end
$version
	Icarus Verilog
$end
$timescale
	1ps
$end
$scope module simple_basic_test $end
$var wire 1 ! so $end
$var wire 1 " po6 $end
$var wire 1 # po5 $end
$var wire 1 $ po4 $end
$var wire 1 % po3 $end
$var wire 1 & po2 $end
$var wire 1 ' po1 $end
$var wire 1 ( po0 $end
$var parameter 8 ) EXPECTED_DENSITY $end
$var parameter 8 * EXPECTED_MEM_TYPE $end
$var parameter 8 + EXPECTED_MFG_ID $end
$var reg 1 , clk $end
$var reg 1 - cs_n $end
$var reg 1 . hold_n $end
$var reg 1 / reset_n $end
$var reg 1 0 sclk $end
$var reg 1 1 si $end
$var reg 1 2 test_done $end
$var reg 1 3 wp_n $end
$var integer 32 4 pass_count [31:0] $end
$var integer 32 5 test_count [31:0] $end
$scope module dut $end
$var wire 1 - CS $end
$var wire 1 . HOLD $end
$var wire 1 0 SCLK $end
$var wire 1 1 SI $end
$var wire 1 3 WP $end
$var wire 1 6 diswrsr $end
$var wire 1 7 wp_reg $end
$var wire 1 8 discpers $end
$var wire 1 9 WIP $end
$var wire 1 : WEL $end
$var wire 1 ! SO $end
$var wire 1 " PO6 $end
$var wire 1 # PO5 $end
$var wire 1 $ PO4 $end
$var wire 1 % PO3 $end
$var wire 1 & PO2 $end
$var wire 1 ' PO1 $end
$var wire 1 ( PO0 $end
$var wire 1 ; ISCLK $end
$var wire 1 < HOLD_int $end
$var parameter 8 = CE1 $end
$var parameter 8 > CE2 $end
$var parameter 8 ? DP $end
$var parameter 8 @ EN4K $end
$var parameter 8 A EX4K $end
$var parameter 8 B FASTREAD $end
$var parameter 41 C FLASH_4kb_SIZE $end
$var parameter 53 D FLASH_SIZE $end
$var parameter 8 E ID_Device $end
$var parameter 8 F ID_MXIC $end
$var parameter 8 G MEMORY_Density $end
$var parameter 8 H MEMORY_Type $end
$var parameter 8 I PARALLELMODE $end
$var parameter 8 J PP $end
$var parameter 8 K RDID $end
$var parameter 8 L RDP $end
$var parameter 8 M RDSR $end
$var parameter 8 N READ $end
$var parameter 8 O REMS $end
$var parameter 8 P RES $end
$var parameter 8 Q SE1 $end
$var parameter 8 R SE2 $end
$var parameter 48 S SECTOR_SIZE $end
$var parameter 8 T WRDI $end
$var parameter 8 U WREN $end
$var parameter 8 V WRSR $end
$var parameter 64 W init_file $end
$var parameter 32 X tAA $end
$var parameter 32 Y tC $end
$var parameter 32 Z tCHDX $end
$var parameter 32 [ tCHHH $end
$var parameter 32 \ tCHHL $end
$var parameter 32 ] tCHSH $end
$var parameter 32 ^ tCHSL $end
$var parameter 32 _ tCLQV $end
$var parameter 32 ` tDP $end
$var parameter 32 a tDVCH $end
$var parameter 32 b tHHCH $end
$var parameter 32 c tHHQX $end
$var parameter 32 d tHLCH $end
$var parameter 32 e tHLQZ $end
$var parameter 32 f tRES1 $end
$var parameter 32 g tRES2 $end
$var parameter 32 h tSHCH $end
$var parameter 32 i tSHQZ $end
$var parameter 32 j tSHSL $end
$var parameter 32 k tSHWL $end
$var parameter 32 l tSLCH $end
$var parameter 32 m tWHSL $end
$var parameter 32 n tW_max $end
$var parameter 32 o tW_min $end
$var reg 21 p Address [20:0] $end
$var reg 8 q CMD_REG [7:0] $end
$var reg 1 r DisSO_outENB $end
$var reg 1 s ENB_P0 $end
$var reg 1 t ENB_P1 $end
$var reg 1 u ENB_S0 $end
$var reg 1 v ENB_S1 $end
$var reg 1 w PO_reg0 $end
$var reg 1 x PO_reg1 $end
$var reg 1 y PO_reg2 $end
$var reg 1 z PO_reg3 $end
$var reg 1 { PO_reg4 $end
$var reg 1 | PO_reg5 $end
$var reg 1 } PO_reg6 $end
$var reg 1 ~ SCLK_EN $end
$var reg 1 !" SO_outEN $end
$var reg 1 "" SO_reg $end
$var reg 1 #" chip_erase_oe $end
$var reg 1 $" dpmode $end
$var reg 2048 %" dummy_A [2047:0] $end
$var reg 1 &" enter4kbmode $end
$var reg 1 '" latch_PO0 $end
$var reg 1 (" latch_PO1 $end
$var reg 1 )" latch_PO2 $end
$var reg 1 *" latch_PO3 $end
$var reg 1 +" latch_PO4 $end
$var reg 1 ," latch_PO5 $end
$var reg 1 -" latch_PO6 $end
$var reg 1 ." latch_SO $end
$var reg 8 /" offset_addr [7:0] $end
$var reg 1 0" pmode $end
$var reg 2048 1" psi_reg [2047:0] $end
$var reg 21 2" rom_addr [20:0] $end
$var reg 13 3" segment_addr [12:0] $end
$var reg 2048 4" si_reg [2047:0] $end
$var reg 3 5" state [2:0] $end
$var reg 8 6" status_reg [7:0] $end
$var integer 32 7" chip_erase_count [31:0] $end
$var integer 32 8" i [31:0] $end
$scope function protected_area $end
$var reg 8 9" sector [7:0] $end
$upscope $end
$scope module u1 $end
$var wire 1 u ENB $end
$var wire 1 :" SCLK $end
$var parameter 32 ;" tCH $end
$var parameter 32 <" tCL $end
$var parameter 32 =" tCYC $end
$upscope $end
$scope module u2 $end
$var wire 1 s ENB $end
$var wire 1 >" SCLK $end
$var parameter 32 ?" tCH $end
$var parameter 32 @" tCL $end
$var parameter 32 A" tCYC $end
$upscope $end
$scope module u3 $end
$var wire 1 v ENB $end
$var wire 1 B" SCLK $end
$var parameter 32 C" tCH $end
$var parameter 32 D" tCL $end
$var parameter 32 E" tCYC $end
$upscope $end
$scope module u4 $end
$var wire 1 t ENB $end
$var wire 1 F" SCLK $end
$var parameter 32 G" tCH $end
$var parameter 32 H" tCL $end
$var parameter 32 I" tCYC $end
$upscope $end
$scope begin CMD_DEC $end
$upscope $end
$scope begin memory_initialize $end
$upscope $end
$scope task chip_erase $end
$upscope $end
$scope task deep_power_down $end
$upscope $end
$scope task dummy_cycle $end
$var reg 32 J" cnum [31:0] $end
$upscope $end
$scope task enter_4kb_sector $end
$upscope $end
$scope task exit_4kb_sector $end
$upscope $end
$scope task fast_read_data $end
$var reg 8 K" out_buf [7:0] $end
$var integer 32 L" dummy_count [31:0] $end
$upscope $end
$scope task page_program $end
$var reg 8 M" offset [7:0] $end
$var reg 13 N" segment [12:0] $end
$var integer 32 O" dummy_count [31:0] $end
$var integer 32 P" i [31:0] $end
$var integer 32 Q" tmp_int [31:0] $end
$upscope $end
$scope task parallel_mode $end
$upscope $end
$scope task read_data $end
$var reg 8 R" out_buf [7:0] $end
$var integer 32 S" dummy_count [31:0] $end
$upscope $end
$scope task read_electronic_id $end
$var reg 8 T" dummy_ID [7:0] $end
$upscope $end
$scope task read_electronic_manufacturer_device_id $end
$var reg 16 U" dummy_ID [15:0] $end
$var integer 32 V" dummy_count [31:0] $end
$upscope $end
$scope task read_id $end
$var reg 24 W" dummy_ID [23:0] $end
$var integer 32 X" dummy_count [31:0] $end
$upscope $end
$scope task read_status $end
$var integer 32 Y" dummy_count [31:0] $end
$upscope $end
$scope task release_from_deep_power_dwon $end
$upscope $end
$scope task sector_erase $end
$var reg 5 Z" sector [4:0] $end
$var integer 32 [" end_4kb_addr [31:0] $end
$var integer 32 \" end_addr [31:0] $end
$var integer 32 ]" i [31:0] $end
$var integer 32 ^" start_4kb_addr [31:0] $end
$var integer 32 _" start_addr [31:0] $end
$upscope $end
$scope task setup_addr $end
$var reg 8 `" offset [7:0] $end
$var reg 16 a" segment [15:0] $end
$var reg 24 b" si [23:0] $end
$upscope $end
$scope task update_array $end
$var reg 8 c" offset [7:0] $end
$var reg 13 d" segment [12:0] $end
$var integer 32 e" dummy_count [31:0] $end
$var integer 32 f" tmp_int [31:0] $end
$upscope $end
$scope task write_disable $end
$upscope $end
$scope task write_enable $end
$upscope $end
$scope task write_status $end
$upscope $end
$upscope $end
$scope task receive_byte $end
$var reg 8 g" data [7:0] $end
$var integer 32 h" i [31:0] $end
$upscope $end
$scope task report_results $end
$var real 1 i" pass_rate $end
$upscope $end
$scope task send_byte $end
$var reg 8 j" data [7:0] $end
$var integer 32 k" i [31:0] $end
$upscope $end
$scope task send_byte_continuous $end
$var reg 8 l" data [7:0] $end
$var integer 32 m" i [31:0] $end
$upscope $end
$scope task test_read_id $end
$var reg 8 n" density [7:0] $end
$var reg 8 o" mem_type [7:0] $end
$var reg 8 p" mfg_id [7:0] $end
$upscope $end
$scope task test_read_status $end
$var reg 8 q" status [7:0] $end
$upscope $end
$scope task test_write_enable $end
$var reg 8 r" status_after [7:0] $end
$var reg 8 s" status_before [7:0] $end
$upscope $end
$upscope $end
$enddefinitions $end
$comment Show the parameter values. $end
$dumpall
b1101000001 I"
b10110100 H"
b10110100 G"
b110010 E"
b1010 D"
b1010 C"
b1010011010 A"
b10110100 @"
b10110100 ?"
b10100 ="
b1010 <"
b1010 ;"
b101010111010100101010000000 o
b11101110011010110010100000000 n
b10100 m
b101 l
b1100100 k
b1100100 j
b1000 i
b101 h
b1110010011100001110000000 g
b1110010011100001110000000 f
b1000 e
b101 d
b1000 c
b101 b
b10 a
b1011011100011011000000 `
b1000 _
b101 ^
b101 ]
b101 \
b101 [
b101 Z
b10100 Y
b1100 X
b110100101101110011010010111010000101110011001000110000101110100 W
b1 V
b110 U
b100 T
b10000000000000000 S
b11011000 R
b100000 Q
b10101011 P
b10010000 O
b11 N
b101 M
b10101011 L
b10011111 K
b10 J
b1010101 I
b100000 H
b10101 G
b11000010 F
b10100 E
b1000000000000000000000 D
b1000000000 C
b1011 B
b10110101 A
b10100101 @
b10111001 ?
b11000111 >
b1100000 =
b11000010 +
b100000 *
b10101 )
$end
#0
$dumpvars
bx s"
bx r"
bx q"
bx p"
bx o"
bx n"
bx m"
bx l"
bx k"
bx j"
r0 i"
bx h"
bx g"
bx f"
bx e"
bx d"
bx c"
bx b"
bx a"
bx `"
bx _"
bx ^"
bx ]"
bx \"
bx ["
bx Z"
bx Y"
bx X"
bx W"
bx V"
bx U"
bx T"
bx S"
bx R"
bx Q"
bx P"
bx O"
bx N"
bx M"
bx L"
bx K"
bx J"
0F"
0B"
0>"
0:"
bx 9"
b1000000000 8"
b0 7"
b0 6"
bx 5"
bx 4"
bx 3"
bx 2"
bx 1"
00"
bx /"
z."
z-"
z,"
z+"
z*"
z)"
z("
z'"
0&"
bx %"
0$"
0#"
x""
0!"
1~
x}
x|
x{
xz
xy
xx
xw
0v
1u
0t
0s
1r
bx q
bx p
1<
0;
0:
09
08
17
06
b0 5
b0 4
13
02
01
00
0/
1.
1-
0,
z(
z'
z&
z%
z$
z#
z"
z!
$end
#5000
1,
#10000
1:"
1;
0,
10
#15000
1,
#19000
b0 5"
#20000
0:"
0;
0,
00
#25000
1,
#30000
1:"
1;
0,
10
#35000
1,
#40000
0:"
0;
0,
00
#45000
1,
#50000
1:"
1;
0,
10
#55000
1,
#60000
0:"
0;
0,
00
#65000
1,
#70000
1:"
1;
0,
10
#75000
1,
#80000
0:"
0;
0,
00
#85000
1,
#90000
1:"
1;
0,
10
#95000
1,
#100000
0:"
0;
0,
00
1/
#105000
1,
#110000
1:"
1;
0,
10
#115000
1,
#120000
0:"
0;
0,
00
#125000
1,
#130000
1:"
1;
0,
10
#135000
1,
#140000
0:"
0;
0,
00
#145000
1,
#150000
1:"
1;
0,
10
#155000
1,
#160000
0:"
0;
0,
00
#165000
1,
#170000
1:"
1;
0,
10
#175000
1,
#180000
0:"
0;
0,
00
#185000
1,
#190000
1:"
1;
0,
10
#195000
1,
#200000
0:"
0;
0,
00
0-
b1 5
#205000
1,
#210000
b110 J"
1:"
1;
0,
10
#215000
1,
#220000
0:"
0;
11
0,
00
b111 m"
b10011111 l"
#225000
1,
#230000
1:"
b110 m"
1;
0,
10
#235000
1,
#240000
0:"
0;
01
0,
00
#245000
1,
#250000
1:"
b101 m"
1;
0,
10
#255000
1,
#260000
0:"
0;
0,
00
#265000
1,
#270000
1:"
b100 m"
1;
0,
10
#275000
1,
#280000
0:"
0;
11
0,
00
#285000
1,
#290000
1:"
b11 m"
1;
0,
10
#295000
1,
#300000
0:"
0;
0,
00
#305000
1,
#310000
1:"
b10 m"
1;
0,
10
#315000
1,
#320000
0:"
0;
0,
00
#325000
1,
#330000
1:"
b1 m"
1;
0,
10
#335000
1,
#340000
0:"
0;
0,
00
#345000
1,
#349000
b10 5"
#350000
1:"
b0 m"
1;
0,
10
#352000
b11 5"
#355000
1,
#360000
0:"
0;
0,
00
#365000
1,
#370000
1:"
b111 h"
b0 g"
b11111111111111111111111111111111 m"
1;
0,
10
#375000
1,
#380000
0:"
0;
0,
00
#385000
1,
#390000
1:"
b110 h"
bz0000000 g"
1;
0,
10
#395000
1,
#400000
0:"
0;
0,
00
#405000
1,
#410000
1:"
b101 h"
bz000000 g"
1;
0,
10
#415000
1,
#420000
0:"
0;
0,
00
#425000
1,
#430000
1:"
b100 h"
bz00000 g"
1;
0,
10
#435000
1,
#440000
0:"
0;
0,
00
#445000
1,
#450000
1:"
b11 h"
bz0000 g"
1;
0,
10
#455000
1,
#460000
0:"
0;
0,
00
#465000
1,
#470000
1:"
b10 h"
bz000 g"
1;
0,
10
#475000
1,
#480000
0:"
0;
0,
00
#485000
1,
#490000
1:"
b1 h"
bz00 g"
1;
0,
10
#495000
1,
#500000
0:"
0;
0,
00
#505000
1,
#510000
1:"
b0 h"
bz0 g"
1;
0,
10
#515000
1,
#520000
0:"
0;
0,
00
#525000
1,
#530000
1:"
bz p"
b111 h"
b0 g"
1;
0,
10
#535000
1,
#540000
0:"
0;
0,
00
#545000
1,
#550000
1:"
b110 h"
bz0000000 g"
1;
0,
10
#555000
1,
#560000
0:"
0;
0,
00
#565000
1,
#570000
1:"
b101 h"
bz000000 g"
1;
0,
10
#575000
1,
#580000
0:"
0;
0,
00
#585000
1,
#590000
1:"
b100 h"
bz00000 g"
1;
0,
10
#595000
1,
#600000
0:"
0;
0,
00
#605000
1,
#610000
1:"
b11 h"
bz0000 g"
1;
0,
10
#615000
1,
#620000
0:"
0;
0,
00
#625000
1,
#630000
1:"
b10 h"
bz000 g"
1;
0,
10
#635000
1,
#640000
0:"
0;
0,
00
#645000
1,
#650000
1:"
b1 h"
bz00 g"
1;
0,
10
#655000
1,
#660000
0:"
0;
0,
00
#665000
1,
#670000
1:"
b0 h"
bz0 g"
1;
0,
10
#675000
1,
#680000
0:"
0;
0,
00
#685000
1,
#690000
1:"
bz o"
b111 h"
b0 g"
1;
0,
10
#695000
1,
#700000
0:"
0;
0,
00
#705000
1,
#710000
1:"
b110 h"
bz0000000 g"
1;
0,
10
#715000
1,
#720000
0:"
0;
0,
00
#725000
1,
#730000
1:"
b101 h"
bz000000 g"
1;
0,
10
#735000
1,
#740000
0:"
0;
0,
00
#745000
1,
#750000
1:"
b100 h"
bz00000 g"
1;
0,
10
#755000
1,
#760000
0:"
0;
0,
00
#765000
1,
#770000
1:"
b11 h"
bz0000 g"
1;
0,
10
#775000
1,
#780000
0:"
0;
0,
00
#785000
1,
#790000
1:"
b10 h"
bz000 g"
1;
0,
10
#795000
1,
#800000
0:"
0;
0,
00
#805000
1,
#810000
1:"
b1 h"
bz00 g"
1;
0,
10
#815000
1,
#820000
0:"
0;
0,
00
#825000
1,
#830000
1:"
b0 h"
bz0 g"
1;
0,
10
#835000
1,
#840000
0:"
0;
0,
00
#845000
1,
#850000
1:"
1-
bz n"
b11111111111111111111111111111111 h"
bz g"
1;
0,
10
#855000
1,
#860000
0:"
0;
0,
00
#865000
1,
#869000
b0 5"
#870000
1:"
1;
0,
10
#875000
1,
#880000
0:"
0;
0,
00
#885000
1,
#890000
1:"
1;
0,
10
0-
b10 5
#895000
1,
#900000
0:"
0;
0,
00
#905000
1,
#910000
1:"
1;
0,
10
b111 m"
b101 l"
#915000
1,
#920000
0:"
0;
01
0,
00
#925000
1,
#930000
1:"
b110 m"
1;
0,
10
#935000
1,
#940000
0:"
0;
0,
00
#945000
1,
#950000
1:"
b101 m"
1;
0,
10
#955000
1,
#960000
0:"
0;
0,
00
#965000
1,
#970000
1:"
b100 m"
1;
0,
10
#975000
1,
#980000
0:"
0;
0,
00
#985000
1,
#990000
1:"
b11 m"
1;
0,
10
#995000
1,
#1000000
0:"
0;
0,
00
#1005000
1,
#1010000
1:"
b10 m"
1;
0,
10
#1015000
1,
#1020000
0:"
0;
11
0,
00
#1025000
1,
#1029000
b10 5"
#1030000
1:"
b1 m"
1;
0,
10
#1032000
b11 5"
#1035000
1,
#1040000
0:"
0;
01
0,
00
#1045000
1,
#1050000
1:"
b0 m"
1;
0,
10
#1055000
1,
#1060000
0:"
0;
11
0,
00
#1065000
1,
#1070000
1:"
b111 h"
b0 g"
b11111111111111111111111111111111 m"
1;
0,
10
#1075000
1,
#1080000
0:"
0;
0,
00
#1085000
1,
#1090000
1:"
b110 h"
bz0000000 g"
1;
0,
10
#1095000
1,
#1100000
0:"
0;
0,
00
#1105000
1,
#1110000
1:"
b101 h"
bz000000 g"
1;
0,
10
#1115000
1,
#1120000
0:"
0;
0,
00
#1125000
1,
#1130000
1:"
b100 h"
bz00000 g"
1;
0,
10
#1135000
1,
#1140000
0:"
0;
0,
00
#1145000
1,
#1150000
1:"
b11 h"
bz0000 g"
1;
0,
10
#1155000
1,
#1160000
0:"
0;
0,
00
#1165000
1,
#1170000
1:"
b10 h"
bz000 g"
1;
0,
10
#1175000
1,
#1180000
0:"
0;
0,
00
#1185000
1,
#1190000
1:"
b1 h"
bz00 g"
1;
0,
10
#1195000
1,
#1200000
0:"
0;
0,
00
#1205000
1,
#1210000
1:"
b0 h"
bz0 g"
1;
0,
10
#1215000
1,
#1220000
0:"
0;
0,
00
#1225000
1,
#1230000
1:"
1-
bz q"
b11111111111111111111111111111111 h"
bz g"
1;
0,
10
#1235000
1,
#1240000
0:"
0;
0,
00
#1245000
1,
#1249000
b0 5"
#1250000
1:"
1;
0,
10
#1255000
1,
#1260000
0:"
0;
0,
00
#1265000
1,
#1270000
1:"
1;
0,
10
0-
b11 5
b1 4
#1275000
1,
#1280000
0:"
0;
0,
00
#1285000
1,
#1290000
1:"
1;
0,
10
b111 m"
#1295000
1,
#1300000
0:"
0;
01
0,
00
#1305000
1,
#1310000
1:"
b110 m"
1;
0,
10
#1315000
1,
#1320000
0:"
0;
0,
00
#1325000
1,
#1330000
1:"
b101 m"
1;
0,
10
#1335000
1,
#1340000
0:"
0;
0,
00
#1345000
1,
#1350000
1:"
b100 m"
1;
0,
10
#1355000
1,
#1360000
0:"
0;
0,
00
#1365000
1,
#1370000
1:"
b11 m"
1;
0,
10
#1375000
1,
#1380000
0:"
0;
0,
00
#1385000
1,
#1390000
1:"
b10 m"
1;
0,
10
#1395000
1,
#1400000
0:"
0;
11
0,
00
#1405000
1,
#1409000
b10 5"
#1410000
1:"
b1 m"
1;
0,
10
#1412000
b11 5"
#1415000
1,
#1420000
0:"
0;
01
0,
00
#1425000
1,
#1430000
1:"
b0 m"
1;
0,
10
#1435000
1,
#1440000
0:"
0;
11
0,
00
#1445000
1,
#1450000
1:"
b111 h"
b0 g"
b11111111111111111111111111111111 m"
1;
0,
10
#1455000
1,
#1460000
0:"
0;
0,
00
#1465000
1,
#1470000
1:"
b110 h"
bz0000000 g"
1;
0,
10
#1475000
1,
#1480000
0:"
0;
0,
00
#1485000
1,
#1490000
1:"
b101 h"
bz000000 g"
1;
0,
10
#1495000
1,
#1500000
0:"
0;
0,
00
#1505000
1,
#1510000
1:"
b100 h"
bz00000 g"
1;
0,
10
#1515000
1,
#1520000
0:"
0;
0,
00
#1525000
1,
#1530000
1:"
b11 h"
bz0000 g"
1;
0,
10
#1535000
1,
#1540000
0:"
0;
0,
00
#1545000
1,
#1550000
1:"
b10 h"
bz000 g"
1;
0,
10
#1555000
1,
#1560000
0:"
0;
0,
00
#1565000
1,
#1570000
1:"
b1 h"
bz00 g"
1;
0,
10
#1575000
1,
#1580000
0:"
0;
0,
00
#1585000
1,
#1590000
1:"
b0 h"
bz0 g"
1;
0,
10
#1595000
1,
#1600000
0:"
0;
0,
00
#1605000
1,
#1610000
1:"
1-
bz s"
b11111111111111111111111111111111 h"
bz g"
1;
0,
10
#1615000
1,
#1620000
0:"
0;
0,
00
#1625000
1,
#1629000
b0 5"
#1630000
1:"
1;
0,
10
#1635000
1,
#1640000
0:"
0;
0,
00
#1645000
1,
#1650000
1:"
1;
0,
10
0-
#1655000
1,
#1660000
0:"
0;
0,
00
#1665000
1,
#1670000
1:"
1;
0,
10
b111 m"
b110 l"
#1675000
1,
#1680000
0:"
0;
01
0,
00
#1685000
1,
#1690000
1:"
b110 m"
1;
0,
10
#1695000
1,
#1700000
0:"
0;
0,
00
#1705000
1,
#1710000
1:"
b101 m"
1;
0,
10
#1715000
1,
#1720000
0:"
0;
0,
00
#1725000
1,
#1730000
1:"
b100 m"
1;
0,
10
#1735000
1,
#1740000
0:"
0;
0,
00
#1745000
1,
#1750000
1:"
b11 m"
1;
0,
10
#1755000
1,
#1760000
0:"
0;
0,
00
#1765000
1,
#1770000
1:"
b10 m"
1;
0,
10
#1775000
1,
#1780000
0:"
0;
11
0,
00
#1785000
1,
#1789000
b10 5"
#1790000
1:"
b1 m"
1;
0,
10
#1792000
b11 5"
#1795000
1,
#1800000
0:"
0;
0,
00
#1805000
1,
#1810000
1:"
b0 m"
1;
0,
10
#1815000
1,
#1820000
0:"
0;
01
0,
00
#1825000
1,
#1830000
1:"
1-
b11111111111111111111111111111111 m"
1;
0,
10
#1835000
1,
#1840000
0:"
0;
0,
00
#1845000
1,
#1849000
b0 5"
#1850000
1:"
1;
0,
10
#1855000
1,
#1860000
0:"
0;
0,
00
#1865000
1,
#1870000
1:"
1;
0,
10
0-
#1875000
1,
#1880000
0:"
0;
0,
00
#1885000
1,
#1890000
1:"
1;
0,
10
b111 m"
b101 l"
#1895000
1,
#1900000
0:"
0;
0,
00
#1905000
1,
#1910000
1:"
b110 m"
1;
0,
10
#1915000
1,
#1920000
0:"
0;
0,
00
#1925000
1,
#1930000
1:"
b101 m"
1;
0,
10
#1935000
1,
#1940000
0:"
0;
0,
00
#1945000
1,
#1950000
1:"
b100 m"
1;
0,
10
#1955000
1,
#1960000
0:"
0;
0,
00
#1965000
1,
#1970000
1:"
b11 m"
1;
0,
10
#1975000
1,
#1980000
0:"
0;
0,
00
#1985000
1,
#1990000
1:"
b10 m"
1;
0,
10
#1995000
1,
#2000000
0:"
0;
11
0,
00
#2005000
1,
#2009000
b10 5"
#2010000
1:"
b1 m"
1;
0,
10
#2012000
b11 5"
#2015000
1,
#2020000
0:"
0;
01
0,
00
#2025000
1,
#2030000
1:"
b0 m"
1;
0,
10
#2035000
1,
#2040000
0:"
0;
11
0,
00
#2045000
1,
#2050000
1:"
b111 h"
b0 g"
b11111111111111111111111111111111 m"
1;
0,
10
#2055000
1,
#2060000
0:"
0;
0,
00
#2065000
1,
#2070000
1:"
b110 h"
bz0000000 g"
1;
0,
10
#2075000
1,
#2080000
0:"
0;
0,
00
#2085000
1,
#2090000
1:"
b101 h"
bz000000 g"
1;
0,
10
#2095000
1,
#2100000
0:"
0;
0,
00
#2105000
1,
#2110000
1:"
b100 h"
bz00000 g"
1;
0,
10
#2115000
1,
#2120000
0:"
0;
0,
00
#2125000
1,
#2130000
1:"
b11 h"
bz0000 g"
1;
0,
10
#2135000
1,
#2140000
0:"
0;
0,
00
#2145000
1,
#2150000
1:"
b10 h"
bz000 g"
1;
0,
10
#2155000
1,
#2160000
0:"
0;
0,
00
#2165000
1,
#2170000
1:"
b1 h"
bz00 g"
1;
0,
10
#2175000
1,
#2180000
0:"
0;
0,
00
#2185000
1,
#2190000
1:"
b0 h"
bz0 g"
1;
0,
10
#2195000
1,
#2200000
0:"
0;
0,
00
#2205000
1,
#2210000
1:"
1-
bz r"
b11111111111111111111111111111111 h"
bz g"
1;
0,
10
#2215000
1,
#2220000
0:"
0;
0,
00
#2225000
1,
#2229000
b0 5"
